Grading Rubric for HW04

Grade: 100%

Two Files were created CrapsIf.java       10 pts YES
                   CrapsSwitch.java
Random Code						 10 pts YES
User provided input			     10 pts YES
Determine Slang					 20 pts YES
Print the Slang					 10 pts YES
Comments						 10 pts YES
Compiles						 30 pts YES 
